{
  "window": {
    "resolution": {
      "width": 1920,
      "height": 1080
    },
    "settings": {
      "render": "OpenGL",
      "display": "windowed"
    }
  },
  "fps": {
    "limit": true,
    "value": 60
  }
}